// Jest Snapshot v1, https://goo.gl/fbAQLP

exports[`should test Home component with default state of empty array 1`] = `ShallowWrapper {}`;

exports[`should test Home component with list of news articles 1`] = `ShallowWrapper {}`;
